2 Data frames – Introduction to R (ResBaz Victoria 2024)
…
geo <- read_csv("r-intro/geo.csv")

Rows: 196 Columns: 7
── Column specification ────────────────────────────────────────────────────────
Delimiter: ","
chr (3): name, region, income2017
dbl (2): lat, long
lgl (2): oecd, g77

ℹ Use `spec()` to retrieve the full column specification for this data.
ℹ Specify the column types or set `show_col_types = FALSE` to quiet this message.

geo

# A tibble: 196 × 7
   name             region oecd  g77      lat  long income2017
   <chr>            <chr>  <lgl> <lgl>  <dbl> <dbl> <chr>     
 1 Australia        asia   TRUE  FALSE -25     135  high      
 2 Brunei           asia   FALSE TRUE    4.5   115. high      
 3 Cambodia         asia   FALSE TRUE   13     105  lower_mid 
 4 China            asia   FALSE TRUE   35     105  upper_mid 
 5 Fiji             asia   FALSE TRUE  -18     178  upper_mid 
 6 Hong Kong, China asia   FALSE FALSE  22.3   114. high      
 7 Indonesia        asia   FALSE TRUE   -5     120  lower_mid 
 8 Japan            asia   TRUE  FALSE  35.7   140. high      
 9 Kiribati         asia   FALSE FALSE   1.42  173. lower_mid 
10 North Korea      asia   FALSE TRUE   40     127  low       
# ℹ 186 more rows
…
The column or row may be omitted, thereby retrieving the entire row or column.

geo[4,]

# A tibble: 1 × 7
  name  region oecd  g77     lat  long income2017
  <chr> <chr>  <lgl> <lgl> <dbl> <dbl> <chr>     
1 China asia   FALSE TRUE     35   105 upper_mid 

geo[,"region"]

# A tibble: 196 × 1
   region
   <chr> 
 1 asia  
 2 asia  
 3 asia  
 4 asia  
 5 asia  
 6 asia  
 7 asia  
 8 asia  
 9 asia  
10 asia  
# ℹ 186 more rows
…
head(is_southern)

[1]  TRUE FALSE FALSE FALSE  TRUE FALSE

sum(is_southern)

[1] 40

sum treats TRUE as 1 and FALSE as 0, so it tells us the number of TRUE elements in the vector.

We can use this logical vector to get the southern countries from geo:

geo[is_southern,]

# A tibble: 40 × 7
   name             region oecd  g77       lat  long income2017
   <chr>            <chr>  <lgl> <lgl>   <dbl> <dbl> <chr>     
 1 Australia        asia   TRUE  FALSE -25      135  high      
 2 Fiji             asia   FALSE TRUE  -18      178  upper_mid 
 3 Indonesia        asia   FALSE TRUE   -5      120  lower_mid 
 4 Nauru            asia   FALSE FALSE  -0.517  167. upper_mid 
 5 New Zealand      asia   TRUE  FALSE -42      174  high      
 6 Papua New Guinea asia   FALSE TRUE   -6      147  lower_mid 
 7 Samoa            asia   FALSE TRUE  -13.8   -172. upper_mid 
 8 Solomon Islands  asia   FALSE TRUE   -8      159  lower_mid 
 9 Timor-Leste      asia   FALSE TRUE   -8.83   126. lower_mid 
10 Tonga            asia   FALSE TRUE  -20     -175  upper_mid 
# ℹ 30 more rows
…
# A tibble: 3 × 7
  name        region   oecd  g77     lat  long income2017
  <chr>       <chr>    <lgl> <lgl> <dbl> <dbl> <chr>     
1 Australia   asia     TRUE  FALSE -25   135   high      
2 New Zealand asia     TRUE  FALSE -42   174   high      
3 Chile       americas TRUE  TRUE  -33.5 -70.6 high      

is_southern seems like it should be kept within our geo data frame for future use. We can add it as a new column of the data frame with:

geo$southern <- is_southern

geo

# A tibble: 196 × 8
   name             region oecd  g77      lat  long income2017 southern
   <chr>            <chr>  <lgl> <lgl>  <dbl> <dbl> <chr>      <lgl>   
 1 Australia        asia   TRUE  FALSE -25     135  high       TRUE    
 2 Brunei           asia   FALSE TRUE    4.5   115. high       FALSE   
 3 Cambodia         asia   FALSE TRUE   13     105  lower_mid  FALSE   
 4 China            asia   FALSE TRUE   35     105  upper_mid  FALSE   
 5 Fiji             asia   FALSE TRUE  -18     178  upper_mid  TRUE    
 6 Hong Kong, China asia   FALSE FALSE  22.3   114. high       FALSE   
 7 Indonesia        asia   FALSE TRUE   -5     120  lower_mid  TRUE    
 8 Japan            asia   TRUE  FALSE  35.7   140. high       FALSE   
 9 Kiribati         asia   FALSE FALSE   1.42  173. lower_mid  FALSE   
10 North Korea      asia   FALSE TRUE   40     127  low        FALSE   
# ℹ 186 more rows
…
Using count.

By making a mosaic plot.

Remember you may need to convert columns to factors for plot to work, and that a southern column could be added to geo with:

geo$southern <- geo$lat < 0

2.9 Sorting

Data frames can be sorted using the arrange function in dplyr.

arrange(geo, lat)

# A tibble: 196 × 8
   name         region   oecd  g77     lat  long income2017 southern
   <chr>        <chr>    <lgl> <lgl> <dbl> <dbl> <fct>      <lgl>   
 1 New Zealand  asia     TRUE  FALSE -42   174   high       TRUE    
 2 Argentina    americas FALSE TRUE  -34   -64   upper_mid  TRUE    
 3 Chile        americas TRUE  TRUE  -33.5 -70.6 high       TRUE    
 4 Uruguay      americas FALSE TRUE  -33   -56   high       TRUE    
 5 Lesotho      africa   FALSE TRUE  -29.5  28.2 lower_mid  TRUE    
 6 South Africa africa   FALSE TRUE  -29    24   upper_mid  TRUE    
 7 Swaziland    africa   FALSE TRUE  -26.5  31.5 lower_mid  TRUE    
 8 Australia    asia     TRUE  FALSE -25   135   high       TRUE    
 9 Paraguay     americas FALSE TRUE  -23.3 -58   upper_mid  TRUE    
10 Botswana     africa   FALSE TRUE  -22    24   upper_mid  TRUE    
# ℹ 186 more rows

Numeric columns are sorted in numeric order. Character columns will be sorted in alphabetical order. Factor columns are sorted in order of their levels. The desc helper function can be used to sort in descending order.

arrange(geo, desc(name))

# A tibble: 196 × 8
   name           region   oecd  g77     lat   long income2017 southern
   <chr>          <chr>    <lgl> <lgl> <dbl>  <dbl> <fct>      <lgl>   
 1 Zimbabwe       africa   FALSE TRUE  -19    29.8  low        TRUE    
 2 Zambia         africa   FALSE TRUE  -14.3  28.5  lower_mid  TRUE    
 3 Yemen          asia     FALSE TRUE   15.5  47.5  lower_mid  FALSE   
 4 Vietnam        asia     FALSE TRUE   16.2 108.   lower_mid  FALSE   
 5 Venezuela      americas FALSE TRUE    8   -66    upper_mid  FALSE   
 6 Vanuatu        asia     FALSE TRUE  -16   167    lower_mid  TRUE    
 7 Uzbekistan     asia     FALSE FALSE  41.7  63.8  lower_mid  FALSE   
 8 Uruguay        americas FALSE TRUE  -33   -56    high       TRUE    
 9 United States  americas TRUE  FALSE  39.8 -98.5  high       FALSE   
10 United Kingdom europe   TRUE  FALSE  54.8  -2.70 high       FALSE   
# ℹ 186 more rows

2.10 Joining data frames

Let’s move on to a larger data set. This is from the Gapminder project and contains information about countries over time.

gap <- read_csv("r-intro/gap-minder.csv")
gap

# A tibble: 4,312 × 5
   name                 year population gdp_percap life_exp
   <chr>               <dbl>      <dbl>      <dbl>    <dbl>
 1 Afghanistan          1800    3280000        603     28.2
 2 Albania              1800     410445        667     35.4
 3 Algeria              1800    2503218        715     28.8
 4 Andorra              1800       2654       1197     NA  
 5 Angola               1800    1567028        618     27.0
 6 Antigua and Barbuda  1800      37000        757     33.5
 7 Argentina            1800     534000       1507     33.2
 8 Armenia              1800     413326        514     34  
 9 Australia            1800     351014        814     34.0
10 Austria              1800    3205587       1847     34.4
# ℹ 4,302 more rows

Quiz

What does each row represent in this new data frame?

It would be useful to have general information about countries from geo available as columns when we use this data frame. gap and geo share a column called name which can be used to match rows from one to the other.

gap_geo <- left_join(gap, geo, by="name")
gap_geo

# A tibble: 4,312 × 12
   name      year population gdp_percap life_exp region oecd  g77     lat   long
   <chr>    <dbl>      <dbl>      <dbl>    <dbl> <chr>  <lgl> <lgl> <dbl>  <dbl>
 1 Afghani…  1800    3280000        603     28.2 asia   FALSE TRUE   33    66   
 2 Albania   1800     410445        667     35.4 europe FALSE FALSE  41    20   
 3 Algeria   1800    2503218        715     28.8 africa FALSE TRUE   28     3   
 4 Andorra   1800       2654       1197     NA   europe FALSE FALSE  42.5   1.52
 5 Angola    1800    1567028        618     27.0 africa FALSE TRUE  -12.5  18.5 
 6 Antigua…  1800      37000        757     33.5 ameri… FALSE TRUE   17.0 -61.8 
 7 Argenti…  1800     534000       1507     33.2 ameri… FALSE TRUE  -34   -64   
 8 Armenia   1800     413326        514     34   europe FALSE FALSE  40.2  45   
 9 Austral…  1800     351014        814     34.0 asia   TRUE  FALSE -25   135   
10 Austria   1800    3205587       1847     34.4 europe TRUE  FALSE  47.3  13.3 
# ℹ 4,302 more rows
# ℹ 2 more variables: income2017 <fct>, southern <lgl>
…
