2 Data frames | Introduction to R, version 2
…
## 
## ── Column specification ─────────────────────────────────────────────────────────────────────────────────────────────────────────────────────────────────────
## cols(
##   name = col_character(),
##   region = col_character(),
##   oecd = col_logical(),
##   g77 = col_logical(),
##   lat = col_double(),
##   long = col_double(),
##   income2017 = col_character()
## )

geo

## # A tibble: 196 x 7
##    name                region   oecd  g77     lat   long income2017
##    <chr>               <chr>    <lgl> <lgl> <dbl>  <dbl> <chr>     
##  1 Afghanistan         asia     FALSE TRUE   33    66    low       
##  2 Albania             europe   FALSE FALSE  41    20    upper_mid 
##  3 Algeria             africa   FALSE TRUE   28     3    upper_mid 
##  4 Andorra             europe   FALSE FALSE  42.5   1.52 high      
##  5 Angola              africa   FALSE TRUE  -12.5  18.5  lower_mid 
##  6 Antigua and Barbuda americas FALSE TRUE   17.0 -61.8  high      
##  7 Argentina           americas FALSE TRUE  -34   -64    upper_mid 
##  8 Armenia             europe   FALSE FALSE  40.2  45    lower_mid 
##  9 Australia           asia     TRUE  FALSE -25   135    high      
## 10 Austria             europe   TRUE  FALSE  47.3  13.3  high      
## # … with 186 more rows
…
The column or row may be omitted, thereby retrieving the entire row or column.

geo[4,]

## # A tibble: 1 x 7
##   name    region oecd  g77     lat  long income2017
##   <chr>   <chr>  <lgl> <lgl> <dbl> <dbl> <chr>     
## 1 Andorra europe FALSE FALSE  42.5  1.52 high

geo[,"region"]

## # A tibble: 196 x 1
##    region  
##    <chr>   
##  1 asia    
##  2 europe  
##  3 africa  
##  4 europe  
##  5 africa  
##  6 americas
##  7 americas
##  8 europe  
##  9 asia    
## 10 europe  
## # … with 186 more rows
…
head(is_southern)

## [1] FALSE FALSE FALSE FALSE  TRUE FALSE

sum(is_southern)

## [1] 40

sum treats TRUE as 1 and FALSE as 0, so it tells us the number of TRUE elements in the vector.

We can use this logical vector to get the southern countries from geo:

geo[is_southern,]

## # A tibble: 40 x 7
##    name             region   oecd  g77     lat  long income2017
##    <chr>            <chr>    <lgl> <lgl> <dbl> <dbl> <chr>     
##  1 Angola           africa   FALSE TRUE  -12.5  18.5 lower_mid 
##  2 Argentina        americas FALSE TRUE  -34   -64   upper_mid 
##  3 Australia        asia     TRUE  FALSE -25   135   high      
##  4 Bolivia          americas FALSE TRUE  -17   -65   lower_mid 
##  5 Botswana         africa   FALSE TRUE  -22    24   upper_mid 
##  6 Brazil           americas FALSE TRUE  -10   -55   upper_mid 
##  7 Burundi          africa   FALSE TRUE   -3.5  30   low       
##  8 Chile            americas TRUE  TRUE  -33.5 -70.6 high      
##  9 Comoros          africa   FALSE TRUE  -12.2  44.4 low       
## 10 Congo, Dem. Rep. africa   FALSE TRUE   -2.5  23.5 low       
## # … with 30 more rows
…
## # A tibble: 3 x 7
##   name        region   oecd  g77     lat  long income2017
##   <chr>       <chr>    <lgl> <lgl> <dbl> <dbl> <chr>     
## 1 Australia   asia     TRUE  FALSE -25   135   high      
## 2 Chile       americas TRUE  TRUE  -33.5 -70.6 high      
## 3 New Zealand asia     TRUE  FALSE -42   174   high

is_southern seems like it should be kept within our geo data frame for future use. We can add it as a new column of the data frame with:

geo$southern <- is_southern

geo

## # A tibble: 196 x 8
##    name                region   oecd  g77     lat   long income2017 southern
##    <chr>               <chr>    <lgl> <lgl> <dbl>  <dbl> <chr>      <lgl>   
##  1 Afghanistan         asia     FALSE TRUE   33    66    low        FALSE   
##  2 Albania             europe   FALSE FALSE  41    20    upper_mid  FALSE   
##  3 Algeria             africa   FALSE TRUE   28     3    upper_mid  FALSE   
##  4 Andorra             europe   FALSE FALSE  42.5   1.52 high       FALSE   
##  5 Angola              africa   FALSE TRUE  -12.5  18.5  lower_mid  TRUE    
##  6 Antigua and Barbuda americas FALSE TRUE   17.0 -61.8  high       FALSE   
##  7 Argentina           americas FALSE TRUE  -34   -64    upper_mid  TRUE    
##  8 Armenia             europe   FALSE FALSE  40.2  45    lower_mid  FALSE   
##  9 Australia           asia     TRUE  FALSE -25   135    high       TRUE    
## 10 Austria             europe   TRUE  FALSE  47.3  13.3  high       FALSE   
## # … with 186 more rows
…
Using count.

By making a mosaic plot.

Remember you may need to convert columns to factors for plot to work, and that a southern column could be added to geo with:

geo$southern <- geo$lat < 0

2.9 Sorting

Data frames can be sorted using the arrange function in dplyr.

arrange(geo, lat)

## # A tibble: 196 x 8
##    name         region   oecd  g77     lat  long income2017 southern
##    <chr>        <chr>    <lgl> <lgl> <dbl> <dbl> <fct>      <lgl>   
##  1 New Zealand  asia     TRUE  FALSE -42   174   high       TRUE    
##  2 Argentina    americas FALSE TRUE  -34   -64   upper_mid  TRUE    
##  3 Chile        americas TRUE  TRUE  -33.5 -70.6 high       TRUE    
##  4 Uruguay      americas FALSE TRUE  -33   -56   high       TRUE    
##  5 Lesotho      africa   FALSE TRUE  -29.5  28.2 lower_mid  TRUE    
##  6 South Africa africa   FALSE TRUE  -29    24   upper_mid  TRUE    
##  7 Swaziland    africa   FALSE TRUE  -26.5  31.5 lower_mid  TRUE    
##  8 Australia    asia     TRUE  FALSE -25   135   high       TRUE    
##  9 Paraguay     americas FALSE TRUE  -23.3 -58   upper_mid  TRUE    
## 10 Botswana     africa   FALSE TRUE  -22    24   upper_mid  TRUE    
## # … with 186 more rows

Numeric columns are sorted in numeric order. Character columns will be sorted in alphabetical order. Factor columns are sorted in order of their levels. The desc helper function can be used to sort in descending order.

arrange(geo, desc(name))

## # A tibble: 196 x 8
##    name           region   oecd  g77     lat   long income2017 southern
##    <chr>          <chr>    <lgl> <lgl> <dbl>  <dbl> <fct>      <lgl>   
##  1 Zimbabwe       africa   FALSE TRUE  -19    29.8  low        TRUE    
##  2 Zambia         africa   FALSE TRUE  -14.3  28.5  lower_mid  TRUE    
##  3 Yemen          asia     FALSE TRUE   15.5  47.5  lower_mid  FALSE   
##  4 Vietnam        asia     FALSE TRUE   16.2 108.   lower_mid  FALSE   
##  5 Venezuela      americas FALSE TRUE    8   -66    upper_mid  FALSE   
##  6 Vanuatu        asia     FALSE TRUE  -16   167    lower_mid  TRUE    
##  7 Uzbekistan     asia     FALSE FALSE  41.7  63.8  lower_mid  FALSE   
##  8 Uruguay        americas FALSE TRUE  -33   -56    high       TRUE    
##  9 United States  americas TRUE  FALSE  39.8 -98.5  high       FALSE   
## 10 United Kingdom europe   TRUE  FALSE  54.8  -2.70 high       FALSE   
## # … with 186 more rows

2.10 Joining data frames

Let’s move on to a larger data set. This is from the Gapminder project and contains information about countries over time.

gap <- read_csv("r-intro-2-files/gap-minder.csv")
gap

## # A tibble: 4,312 x 5
##    name                 year population gdp_percap life_exp
##    <chr>               <dbl>      <dbl>      <dbl>    <dbl>
##  1 Afghanistan          1800    3280000        603     28.2
##  2 Albania              1800     410445        667     35.4
##  3 Algeria              1800    2503218        715     28.8
##  4 Andorra              1800       2654       1197     NA  
##  5 Angola               1800    1567028        618     27.0
##  6 Antigua and Barbuda  1800      37000        757     33.5
##  7 Argentina            1800     534000       1507     33.2
##  8 Armenia              1800     413326        514     34  
##  9 Australia            1800     351014        814     34.0
## 10 Austria              1800    3205587       1847     34.4
## # … with 4,302 more rows

Quiz

What is the unit of observation in this new data frame?

It would be useful to have general information about countries from geo available as columns when we use this data frame. gap and geo share a column called name which can be used to match rows from one to the other.

gap_geo <- left_join(gap, geo, by="name")
gap_geo

## # A tibble: 4,312 x 12
##    name      year population gdp_percap life_exp region oecd  g77     lat   long
##    <chr>    <dbl>      <dbl>      <dbl>    <dbl> <chr>  <lgl> <lgl> <dbl>  <dbl>
##  1 Afghani…  1800    3280000        603     28.2 asia   FALSE TRUE   33    66   
##  2 Albania   1800     410445        667     35.4 europe FALSE FALSE  41    20   
##  3 Algeria   1800    2503218        715     28.8 africa FALSE TRUE   28     3   
##  4 Andorra   1800       2654       1197     NA   europe FALSE FALSE  42.5   1.52
##  5 Angola    1800    1567028        618     27.0 africa FALSE TRUE  -12.5  18.5 
##  6 Antigua…  1800      37000        757     33.5 ameri… FALSE TRUE   17.0 -61.8 
##  7 Argenti…  1800     534000       1507     33.2 ameri… FALSE TRUE  -34   -64   
##  8 Armenia   1800     413326        514     34   europe FALSE FALSE  40.2  45   
##  9 Austral…  1800     351014        814     34.0 asia   TRUE  FALSE -25   135   
## 10 Austria   1800    3205587       1847     34.4 europe TRUE  FALSE  47.3  13.3 
## # … with 4,302 more rows, and 2 more variables: income2017 <fct>,
## #   southern <lgl>
…
