…
So far unremarkable, but `summarize` comes into its own when the `group_by` "adjective" is used.


```r
summarize(
    group_by(gap_geo, year), 
    mean_life_exp=weighted.mean(life_exp, population, na.rm=TRUE))
```

```
     # A tibble: 22 x 2
         year mean_life_exp
        <int>         <dbl>
      1  1800          30.9
      2  1810          31.1
      3  1820          31.2
      4  1830          31.4
      5  1840          31.4
      6  1850          31.6
      7  1860          30.3
      8  1870          31.5
      9  1880          32.0
     10  1890          32.5
     # ... with 12 more rows
```
…
### {-}

`group_by` can be used to group by multiple columns, much like `count`. We can use this to see how the rest of the world is catching up to OECD nations in terms of life expectancy.


```r
result <- summarize(
    group_by(gap_geo,year,oecd), 
    mean_life_exp=weighted.mean(life_exp, population, na.rm=TRUE))
result
```

```
     # A tibble: 44 x 3
     # Groups:   year [?]
         year oecd  mean_life_exp
        <int> <lgl>         <dbl>
      1  1800 FALSE          29.9
      2  1800 TRUE           34.7
      3  1810 FALSE          29.9
      4  1810 TRUE           35.2
      5  1820 FALSE          30.0
      6  1820 TRUE           35.9
      7  1830 FALSE          30.0
      8  1830 TRUE           36.2
      9  1840 FALSE          30.0
     10  1840 TRUE           36.2
     # ... with 34 more rows
```
…
